[
	{
		"type": "bike",
		"id": "normalbike1",
		"name": "Normal Bike 1",
		"bikeType": "normalbike",
		"weight": 10.5,
		"licensePlate": "29-F1-25468",
		"manuafacturingDate": "15/07/2020",
		"producer": "BikePro",
		"cost": 599000
	},
	{
		"type": "bike",
		"id": "normalbike2",
		"name": "Normal Bike 2",
		"bikeType": "normalbike",
		"weight": 10.5,
		"licensePlate": "29-F1-47258",
		"manuafacturingDate": "26/08/2020",
		"producer": "BikeProMax",
		"cost": 699000
	},
		{
		"type": "bike",
		"id": "normalbike3",
		"name": "Normal Bike 3",
		"bikeType": "normalbike",
		"weight": 10.5,
		"licensePlate": "29-F1-58456",
		"manuafacturingDate": "25/10/2020",
		"producer": "BikeProVip",
		"cost": 799000
	}
]