[
	{
		"type": "ebike",
		"id": "ebike1",
		"name": "EBike 1",
		"bikeType": "ebike",
		"weight": 12.5,
		"licensePlate": "29-F1-45826",
		"manuafacturingDate": "06/05/2020",
		"producer": "EBikePro",
		"cost": 599000,
		"batteryPercentage": 90,
		"loadCycles": 3,
		"estimatedUsageTimeRemaining": 300
	},
	{
		"type": "ebike",
		"id": "ebike2",
		"name": "EBike 2",
		"bikeType": "ebike",
		"weight": 12.5,
		"licensePlate": "29-F1-55842",
		"manuafacturingDate": "22/07/2020",
		"producer": "EBikeProMax",
		"cost": 699000,
		"batteryPercentage": 80,
		"loadCycles": 2,
		"estimatedUsageTimeRemaining": 200
	},
		{
		"type": "ebike",
		"id": "ebike3",
		"name": "EBike 3",
		"bikeType": "ebike",
		"weight": 12.5,
		"licensePlate": "29-F1-42115",
		"manuafacturingDate": "29/10/2020",
		"producer": "EBikeProVip",
		"cost": 799000,
		"batteryPercentage": 70,
		"loadCycles": 2,
		"estimatedUsageTimeRemaining": 200
	}
]