[
	{
		"id": 1, 
		"loaiXe": "Bike",
		"maXe": "1",
		"tienCoc": 40000,
		"thoiGianBatDauThue": "10:36:12 21-12-2020",
		"thoiGianThue": 0,
		"idBaiXe": "",
		"tienTra": 0
	},
	{
		"id": 2, 
		"loaiXe": "Bike",
		"maXe": "2",
		"tienCoc": 50000,
		"thoiGianBatDauThue": "18:36:12 21-12-2020",
		"thoiGianThue": 0,
		"idBaiXe": "",
		"tienTra": 0
	}
]